<?xml version="1.0" encoding="UTF-8"?>
<svg width="22px" height="22px" viewBox="0 0 22 22" version="1.1" xmlns="http://www.w3.org/2000/svg" xmlns:xlink="http://www.w3.org/1999/xlink">
    <!-- Generator: Sketch 61 (89581) - https://sketch.com -->
    <title>arrow copy</title>
    <desc>Created with Sketch.</desc>
    <g id="arrow-copy" stroke="none" stroke-width="1" fill="none" fill-rule="evenodd" stroke-linejoin="round">
        <polyline id="Path-27" stroke="#1D3C59" stroke-width="2" transform="translate(10.830566, 10.723389) scale(-1, 1) translate(-10.830566, -10.723389) " points="15.6611328 1 6 10.7988281 15.6611328 20.4467773"></polyline>
    </g>
</svg>