<?xml version="1.0" encoding="UTF-8"?>
<svg width="11px" height="10px" viewBox="0 0 11 10" version="1.1" xmlns="http://www.w3.org/2000/svg" xmlns:xlink="http://www.w3.org/1999/xlink">
    <!-- Generator: Sketch 63.1 (92452) - https://sketch.com -->
    <title>qt_close_n</title>
    <desc>Created with Sketch.</desc>
    <g id="DISPENSER" stroke="none" stroke-width="1" fill="none" fill-rule="evenodd" stroke-linecap="square">
        <g id="admin-user" transform="translate(-563.000000, -213.000000)" stroke="#FFFFFF" stroke-width="1.5">
            <g id="Group-Copy" transform="translate(550.000000, 203.000000)">
                <g id="Group-2" transform="translate(13.000000, 6.000000)">
                    <g id="qt_close_n" transform="translate(5.000000, 9.146447) rotate(45.000000) translate(-5.000000, -9.146447) translate(2.000000, 5.646447)">
                        <line x1="6" y1="0.292893219" x2="2.27373675e-13" y2="6.29289322" id="Stroke-3"></line>
                        <line x1="6" y1="6.29289322" x2="2.27373675e-13" y2="0.292893219" id="Stroke-5"></line>
                    </g>
                </g>
            </g>
        </g>
    </g>
</svg>