<?xml version="1.0" encoding="UTF-8"?>
<svg width="16px" height="16px" viewBox="0 0 16 16" version="1.1" xmlns="http://www.w3.org/2000/svg" xmlns:xlink="http://www.w3.org/1999/xlink">
    <!-- Generator: Sketch 63.1 (92452) - https://sketch.com -->
    <title>Group 2 Copy 5</title>
    <desc>Created with Sketch.</desc>
    <g id="DISPENSER" stroke="none" stroke-width="1" fill="none" fill-rule="evenodd">
        <g id="admin-user" transform="translate(-565.000000, -270.000000)" fill="#FFFFFF" stroke="#D2D2D2">
            <g id="Group-2-Copy-5" transform="translate(565.000000, 270.000000)">
                <rect id="Rectangle" x="0.5" y="0.5" width="15" height="15" rx="2"></rect>
            </g>
        </g>
    </g>
</svg>