<?xml version="1.0" encoding="UTF-8"?>
<svg width="23px" height="20px" viewBox="0 0 23 20" version="1.1" xmlns="http://www.w3.org/2000/svg" xmlns:xlink="http://www.w3.org/1999/xlink">
    <!-- Generator: Sketch 63.1 (92452) - https://sketch.com -->
    <title>company</title>
    <desc>Created with Sketch.</desc>
    <g id="DISPENSER" stroke="none" stroke-width="1" fill="none" fill-rule="evenodd">
        <g id="add-admin" transform="translate(-1065.000000, -612.000000)" stroke="#000000">
            <g id="company" transform="translate(1064.000000, 609.000000)">
                <g id="Group" transform="translate(1.000000, 3.000000)">
                    <rect id="Rectangle-Copy" stroke-width="1.4" x="0.7" y="4.7" width="10.6" height="14.6"></rect>
                    <rect id="Rectangle-Copy-2" stroke-width="1.4" x="14.7" y="8.7" width="7.6" height="10.6"></rect>
                    <rect id="Rectangle" stroke-width="1.4" fill="#FFFFFF" x="6.7" y="0.7" width="12.6" height="18.6"></rect>
                    <line x1="10" y1="9.5" x2="16.25" y2="9.5" id="Path-2-Copy-2" stroke-width="1.4"></line>
                    <line x1="10" y1="13.5" x2="16.25" y2="13.5" id="Path-2-Copy-4" stroke-width="1.4"></line>
                    <line x1="3.75" y1="12" x2="6.25" y2="12" id="Path-2-Copy-6" stroke-width="1.4"></line>
                    <line x1="3.75" y1="16" x2="6.25" y2="16" id="Path-2-Copy-8" stroke-width="1.4"></line>
                    <line x1="3.75" y1="8" x2="6.25" y2="8" id="Path-2-Copy-7" stroke-width="1.4"></line>
                    <line x1="10" y1="5.28076172" x2="16.25" y2="5.28076172" id="Path-2" stroke-width="1.4"></line>
                </g>
            </g>
        </g>
    </g>
</svg>