<?xml version="1.0" encoding="UTF-8"?>
<svg width="13px" height="7px" viewBox="0 0 13 7" version="1.1" xmlns="http://www.w3.org/2000/svg" xmlns:xlink="http://www.w3.org/1999/xlink">
    <!-- Generator: Sketch 63.1 (92452) - https://sketch.com -->
    <title>Group 4</title>
    <desc>Created with Sketch.</desc>
    <g id="DISPENSER" stroke="none" stroke-width="1" fill="none" fill-rule="evenodd" font-family="Montserrat-Regular, Montserrat" font-size="14" font-weight="normal" line-spacing="32">
        <g id="member" transform="translate(-1209.000000, -946.000000)" fill="#000000">
            <g id="Group-4" transform="translate(1209.000000, 934.000000)">
                <text id="&gt;">
                    <tspan x="0" y="14">&gt;</tspan>
                </text>
                <text id="&gt;">
                    <tspan x="5" y="14">&gt;</tspan>
                </text>
            </g>
        </g>
    </g>
</svg>