<?xml version="1.0" encoding="UTF-8"?>
<svg width="22px" height="26px" viewBox="0 0 22 26" version="1.1" xmlns="http://www.w3.org/2000/svg" xmlns:xlink="http://www.w3.org/1999/xlink">
    <!-- Generator: Sketch 63.1 (92452) - https://sketch.com -->
    <title>downlode</title>
    <desc>Created with Sketch.</desc>
    <g id="DISPENSER" stroke="none" stroke-width="1" fill="none" fill-rule="evenodd">
        <g id="download" transform="translate(-783.000000, -382.000000)" stroke="#FFFFFF" stroke-width="1.8">
            <g id="Group-7-Copy" transform="translate(550.000000, 161.000000)">
                <g id="Group-3" transform="translate(0.000000, 202.000000)">
                    <g id="download" transform="translate(226.000000, 14.000000)">
                        <line x1="18.25" y1="5.34630409" x2="18.25" y2="24.8815388" id="Path-16"></line>
                        <polyline id="Path-17" points="9 16 18.25 26.0688477 27 16"></polyline>
                        <line x1="7" y1="29.25" x2="29" y2="29.25" id="Path-18"></line>
                    </g>
                </g>
            </g>
        </g>
    </g>
</svg>