<?xml version="1.0" encoding="UTF-8"?>
<svg width="23px" height="25px" viewBox="0 0 23 25" version="1.1" xmlns="http://www.w3.org/2000/svg" xmlns:xlink="http://www.w3.org/1999/xlink">
    <!-- Generator: Sketch 63.1 (92452) - https://sketch.com -->
    <title>document</title>
    <desc>Created with Sketch.</desc>
    <g id="DISPENSER" stroke="none" stroke-width="1" fill="none" fill-rule="evenodd">
        <g id="project-detail" transform="translate(-555.000000, -943.000000)" stroke="#000000">
            <g id="document" transform="translate(554.000000, 943.000000)">
                <g id="Group-3" transform="translate(2.000000, 1.000000)">
                    <g id="Group" stroke-linejoin="round" stroke-width="1.5">
                        <polygon id="Path-10" points="16.4301758 0 0 0 0 19.8375 12.4926758 19.8375 16.4301758 15.95625"></polygon>
                        <polyline id="Path-13" points="16.4301758 15.8040368 11.9304199 15.8040368 11.9304199 19.8375"></polyline>
                        <polyline id="Path-14" points="5.2175293 19.8375 5.2175293 22.6928467 20.6661784 22.6928467 20.6661784 2.54313965 16.4301758 2.54313965"></polyline>
                    </g>
                    <line x1="3.88888889" y1="4.21666667" x2="12.4444444" y2="4.21666667" id="Path-15" stroke-width="1.5"></line>
                    <line x1="3.88888889" y1="8.05" x2="12.4444444" y2="8.05" id="Path-15-Copy" stroke-width="1.5"></line>
                    <line x1="3.88888889" y1="11.8833333" x2="12.4444444" y2="11.8833333" id="Path-15-Copy-2" stroke-width="1.5"></line>
                </g>
            </g>
        </g>
    </g>
</svg>