<?xml version="1.0" encoding="UTF-8"?>
<svg width="24px" height="24px" viewBox="0 0 24 24" version="1.1" xmlns="http://www.w3.org/2000/svg" xmlns:xlink="http://www.w3.org/1999/xlink">
    <!-- Generator: Sketch 55.2 (78181) - https://sketchapp.com -->
    <title>image</title>
    <desc>Created with Sketch.</desc>
    <g id="image" stroke="none" stroke-width="1" fill="none" fill-rule="evenodd">
        <rect id="Rectangle" stroke="#000000" stroke-width="1.4" x="2.7" y="4.7" width="18.6" height="14.6" rx="2"></rect>
        <path d="M6.5,10 C6.97592502,10 7.40008165,9.77835313 7.67487599,9.43265326 C7.87840718,9.17660468 8,8.8525021 8,8.5 C8,7.67157288 7.32842712,7 6.5,7 C5.67157288,7 5,7.67157288 5,8.5 C5,9.32842712 5.67157288,10 6.5,10 Z" id="Oval" stroke="#000000" stroke-width="1.4"></path>
        <path d="M2.57495117,15.5822754 L5.51889882,12.8839061 C6.57024302,11.9202629 8.15468025,11.8299748 9.30868842,12.6679472 L9.83425769,13.0495845 C11.0701015,13.9469812 12.7828813,13.7726664 13.8125973,12.6446966 L15.7448391,10.5280837 C16.4895497,9.7123142 17.7545688,9.65470953 18.5703383,10.3994201 C18.5870494,10.4146755 18.6035003,10.4302134 18.6196841,10.4460271 L21.4777832,13.2387695" id="Path-28" stroke="#000000" stroke-width="1.4" stroke-linejoin="round"></path>
    </g>
</svg>