<?xml version="1.0" encoding="UTF-8"?>
<svg width="24px" height="24px" viewBox="0 0 24 24" version="1.1" xmlns="http://www.w3.org/2000/svg" xmlns:xlink="http://www.w3.org/1999/xlink">
    <!-- Generator: Sketch 55.2 (78181) - https://sketchapp.com -->
    <title>download_q_and_a_n</title>
    <desc>Created with Sketch.</desc>
    <g id="download_q_and_a_n" stroke="none" stroke-width="1" fill="none" fill-rule="evenodd">
        <path d="M12.5,4.5 L12.5,16.7165527" id="Path-16" stroke="#0086FF" stroke-width="1.4"></path>
        <polyline id="Path-17" stroke="#0086FF" stroke-width="1.4" points="5.85009766 12 12.5040283 17.2045898 19.157959 12.0811825"></polyline>
        <path d="M3.5,19.5 L21.6044922,19.5" id="Path-18" stroke="#0086FF" stroke-width="1.4"></path>
    </g>
</svg>