<?xml version="1.0" encoding="UTF-8"?>
<svg width="18px" height="18px" viewBox="0 0 18 18" version="1.1" xmlns="http://www.w3.org/2000/svg" xmlns:xlink="http://www.w3.org/1999/xlink">
    <!-- Generator: Sketch 63.1 (92452) - https://sketch.com -->
    <title>Group</title>
    <desc>Created with Sketch.</desc>
    <g id="DISPENSER" stroke="none" stroke-width="1" fill="none" fill-rule="evenodd">
        <g id="admin-user" transform="translate(-1509.000000, -210.000000)" stroke="#0086FF" stroke-width="2">
            <g id="Group" transform="translate(1509.000000, 210.000000)">
                <circle id="Oval-Copy" cx="7" cy="7" r="6"></circle>
                <line x1="12" y1="12" x2="16" y2="16" id="Line-3-Copy" stroke-linecap="square"></line>
            </g>
        </g>
    </g>
</svg>