<?xml version="1.0" encoding="UTF-8"?>
<svg width="22px" height="18px" viewBox="0 0 22 18" version="1.1" xmlns="http://www.w3.org/2000/svg" xmlns:xlink="http://www.w3.org/1999/xlink">
    <!-- Generator: Sketch 63.1 (92452) - https://sketch.com -->
    <title>icon_mail_on</title>
    <desc>Created with Sketch.</desc>
    <g id="Page-1" stroke="none" stroke-width="1" fill="none" fill-rule="evenodd">
        <g id="icon_mail_on" transform="translate(1.000000, 1.000000)" stroke="#00529C" stroke-width="1.4">
            <polyline id="Path-8" points="20 0 0 0 0 16 20 16 20 2.80045403 9.90212752 8 0 2.80045403"></polyline>
        </g>
    </g>
</svg>