<?xml version="1.0" encoding="UTF-8"?>
<svg width="24px" height="22px" viewBox="0 0 24 22" version="1.1" xmlns="http://www.w3.org/2000/svg" xmlns:xlink="http://www.w3.org/1999/xlink">
    <!-- Generator: Sketch 63.1 (92452) - https://sketch.com -->
    <title>Q&amp;A</title>
    <desc>Created with Sketch.</desc>
    <g id="DISPENSER" stroke="none" stroke-width="1" fill="none" fill-rule="evenodd">
        <g id="download" transform="translate(-551.000000, -981.000000)">
            <g id="Q&amp;A" transform="translate(550.000000, 979.000000)">
                <path d="M21,3 C22.6568542,3 24,4.34314575 24,6 L24,16 C24,17.6568542 22.6568542,19 21,19 L20,19 L20,23 L16.8,19 L5,19 C3.34314575,19 2,17.6568542 2,16 L2,6 C2,4.34314575 3.34314575,3 5,3 L21,3 Z" id="Combined-Shape" stroke="#000000" stroke-width="1.5" stroke-linejoin="round"></path>
                <circle id="Oval" fill="#000000" fill-rule="evenodd" cx="8" cy="11" r="1"></circle>
                <circle id="Oval-Copy" fill="#000000" fill-rule="evenodd" cx="13" cy="11" r="1"></circle>
                <circle id="Oval-Copy-2" fill="#000000" fill-rule="evenodd" cx="18" cy="11" r="1"></circle>
            </g>
        </g>
    </g>
</svg>