<?xml version="1.0" encoding="UTF-8"?>
<svg width="183px" height="183px" viewBox="0 0 183 183" version="1.1" xmlns="http://www.w3.org/2000/svg" xmlns:xlink="http://www.w3.org/1999/xlink">
    <!-- Generator: Sketch 63.1 (92452) - https://sketch.com -->
    <title>Group 51</title>
    <desc>Created with Sketch.</desc>
    <defs>
        <path d="M0.5,90.787 C0.5,140.492 40.794,180.787 90.5,180.787 L90.5,180.787 C140.205,180.787 180.5,140.492 180.5,90.787 L180.5,90.787 C180.5,41.081 140.205,0.787 90.5,0.787 L90.5,0.787 C40.794,0.787 0.5,41.081 0.5,90.787 L0.5,90.787 Z" id="path-1"></path>
        <path d="M0.5,90.787 C0.5,140.492 40.794,180.787 90.5,180.787 L90.5,180.787 C140.205,180.787 180.5,140.492 180.5,90.787 L180.5,90.787 C180.5,41.081 140.205,0.787 90.5,0.787 L90.5,0.787 C40.794,0.787 0.5,41.081 0.5,90.787" id="path-3"></path>
        <path d="M0.5,90.787 C0.5,140.492 40.794,180.787 90.5,180.787 L90.5,180.787 C140.205,180.787 180.5,140.492 180.5,90.787 L180.5,90.787 C180.5,41.081 140.205,0.787 90.5,0.787 L90.5,0.787 C40.794,0.787 0.5,41.081 0.5,90.787 L0.5,90.787 Z" id="path-5"></path>
        <path d="M0.5,90.787 C0.5,140.492 40.794,180.787 90.5,180.787 L90.5,180.787 C140.205,180.787 180.5,140.492 180.5,90.787 L180.5,90.787 C180.5,41.081 140.205,0.787 90.5,0.787 L90.5,0.787 C40.794,0.787 0.5,41.081 0.5,90.787" id="path-7"></path>
        <path d="M0.5,90.787 C0.5,140.492 40.794,180.787 90.5,180.787 L90.5,180.787 C140.205,180.787 180.5,140.492 180.5,90.787 L180.5,90.787 C180.5,41.081 140.205,0.787 90.5,0.787 L90.5,0.787 C40.794,0.787 0.5,41.081 0.5,90.787 L0.5,90.787 Z" id="path-9"></path>
        <path d="M0.5,90.787 C0.5,140.492 40.794,180.787 90.5,180.787 L90.5,180.787 C140.205,180.787 180.5,140.492 180.5,90.787 L180.5,90.787 C180.5,41.081 140.205,0.787 90.5,0.787 L90.5,0.787 C40.794,0.787 0.5,41.081 0.5,90.787" id="path-11"></path>
        <path d="M0.5,90.787 C0.5,140.492 40.794,180.787 90.5,180.787 L90.5,180.787 C140.205,180.787 180.5,140.492 180.5,90.787 L180.5,90.787 C180.5,41.081 140.205,0.787 90.5,0.787 L90.5,0.787 C40.794,0.787 0.5,41.081 0.5,90.787" id="path-13"></path>
        <path d="M0.5,90.787 C0.5,140.492 40.794,180.787 90.5,180.787 L90.5,180.787 C140.205,180.787 180.5,140.492 180.5,90.787 L180.5,90.787 C180.5,41.081 140.205,0.787 90.5,0.787 L90.5,0.787 C40.794,0.787 0.5,41.081 0.5,90.787" id="path-15"></path>
        <path d="M0.5,90.787 C0.5,140.492 40.794,180.787 90.5,180.787 L90.5,180.787 C140.205,180.787 180.5,140.492 180.5,90.787 L180.5,90.787 C180.5,41.081 140.205,0.787 90.5,0.787 L90.5,0.787 C40.794,0.787 0.5,41.081 0.5,90.787" id="path-17"></path>
        <path d="M0.5,90.787 C0.5,140.492 40.794,180.787 90.5,180.787 L90.5,180.787 C140.205,180.787 180.5,140.492 180.5,90.787 L180.5,90.787 C180.5,41.081 140.205,0.787 90.5,0.787 L90.5,0.787 C40.794,0.787 0.5,41.081 0.5,90.787" id="path-19"></path>
        <path d="M0.5,90.787 C0.5,140.492 40.794,180.787 90.5,180.787 L90.5,180.787 C140.205,180.787 180.5,140.492 180.5,90.787 L180.5,90.787 C180.5,41.081 140.205,0.787 90.5,0.787 L90.5,0.787 C40.794,0.787 0.5,41.081 0.5,90.787" id="path-21"></path>
        <path d="M0.5,90.787 C0.5,140.492 40.794,180.787 90.5,180.787 L90.5,180.787 C140.205,180.787 180.5,140.492 180.5,90.787 L180.5,90.787 C180.5,41.081 140.205,0.787 90.5,0.787 L90.5,0.787 C40.794,0.787 0.5,41.081 0.5,90.787 L0.5,90.787 Z" id="path-23"></path>
        <path d="M0.5,90.787 C0.5,140.492 40.794,180.787 90.5,180.787 L90.5,180.787 C140.205,180.787 180.5,140.492 180.5,90.787 L180.5,90.787 C180.5,41.081 140.205,0.787 90.5,0.787 L90.5,0.787 C40.794,0.787 0.5,41.081 0.5,90.787" id="path-25"></path>
        <path d="M0.5,90.787 C0.5,140.492 40.794,180.787 90.5,180.787 L90.5,180.787 C140.205,180.787 180.5,140.492 180.5,90.787 L180.5,90.787 C180.5,41.081 140.205,0.787 90.5,0.787 L90.5,0.787 C40.794,0.787 0.5,41.081 0.5,90.787 L0.5,90.787 Z" id="path-27"></path>
        <path d="M0.5,90.787 C0.5,140.492 40.794,180.787 90.5,180.787 L90.5,180.787 C140.205,180.787 180.5,140.492 180.5,90.787 L180.5,90.787 C180.5,41.081 140.205,0.787 90.5,0.787 L90.5,0.787 C40.794,0.787 0.5,41.081 0.5,90.787" id="path-29"></path>
    </defs>
    <g id="DISPENSER" stroke="none" stroke-width="1" fill="none" fill-rule="evenodd">
        <g id="profile">
            <g id="Group-51">
                <path d="M181.5,91.0702 C181.5,140.7762 141.206,181.0702 91.5,181.0702 C41.794,181.0702 1.5,140.7762 1.5,91.0702 C1.5,41.3642 41.794,1.0702 91.5,1.0702 C141.206,1.0702 181.5,41.3642 181.5,91.0702" id="Fill-1" fill="#0086FF"></path>
                <g id="Group-48" transform="translate(1.000000, 0.714000)">
                    <g id="Group-5">
                        <mask id="mask-2" fill="white">
                            <use xlink:href="#path-1"></use>
                        </mask>
                        <g id="Clip-4"></g>
                        <path d="M75.6885,108.0862 C75.7995,108.6412 76.0165,126.0442 76.0165,126.0442 L72.6625,125.8772 L62.7875,134.7532 L24.6865,141.3102 L15.1885,152.3942 L44.6515,175.0382 L91.4285,191.0002 L124.3505,177.0332 L151.2865,165.9482 L167.8525,152.5822 L155.4985,142.0052 L121.5795,134.0242 L111.9025,124.3812 L109.1645,124.8242 L108.6105,109.1952 L75.6885,108.0862 Z" id="Fill-3" fill="#FFFFFF" mask="url(#mask-2)"></path>
                    </g>
                    <g id="Group-8">
                        <mask id="mask-4" fill="white">
                            <use xlink:href="#path-3"></use>
                        </mask>
                        <g id="Clip-7"></g>
                        <path d="M166.9199,152.9383 C166.5359,152.9383 166.1519,152.7813 165.8759,152.4713 L161.5489,147.6313 C159.5789,145.4283 157.0189,143.9023 154.1439,143.2183 L122.2879,135.6443 C121.5359,135.4653 121.0709,134.7103 121.2499,133.9593 C121.4299,133.2063 122.1859,132.7413 122.9369,132.9203 L154.7919,140.4953 C158.2259,141.3113 161.2839,143.1333 163.6369,145.7653 L167.9639,150.6053 C168.4789,151.1823 168.4299,152.0663 167.8529,152.5823 C167.5859,152.8213 167.2529,152.9383 166.9199,152.9383" id="Fill-6" fill="#000000" mask="url(#mask-4)"></path>
                    </g>
                    <g id="Group-11">
                        <mask id="mask-6" fill="white">
                            <use xlink:href="#path-5"></use>
                        </mask>
                        <g id="Clip-10"></g>
                        <path d="M55.667,77.4925 C55.667,77.4925 53.209,36.7565 82.639,32.4005 C82.639,32.4005 115.133,24.1175 127.517,55.2435 C128.693,58.1985 129.349,61.3365 129.554,64.5115 C129.763,67.7595 128.13,76.1575 127.517,79.1555 L122.472,75.2165 L118.997,80.2305 L118.997,78.4905 C118.997,78.4905 118.997,73.8395 110.185,74.2275 C101.372,74.6165 95.935,63.4205 95.935,63.4205 C95.436,70.2375 100.092,74.2275 100.092,74.2275 L93.108,74.2275 C81.367,73.4065 81.636,52.6125 81.636,52.6125 C81.636,52.6125 74.603,70.7365 68.783,75.0595 L66.788,81.2295 L63.296,73.5135 L55.667,77.4925 Z" id="Fill-9" fill="#FFFFFF" mask="url(#mask-6)"></path>
                    </g>
                    <g id="Group-14">
                        <mask id="mask-8" fill="white">
                            <use xlink:href="#path-7"></use>
                        </mask>
                        <g id="Clip-13"></g>
                        <path d="M63.2959,72.1131 C63.4499,72.1131 63.6049,72.1381 63.7529,72.1901 C64.1159,72.3151 64.4129,72.5851 64.5709,72.9361 L66.5699,77.3531 L67.4509,74.6291 C67.5409,74.3511 67.7149,74.1091 67.9479,73.9351 C72.4529,70.5891 78.4139,57.0431 80.3309,52.1061 C80.5749,51.4761 81.2379,51.1101 81.9009,51.2391 C82.5669,51.3671 83.0439,51.9531 83.0349,52.6301 C83.0329,52.8251 82.9209,72.1111 93.2059,72.8311 L97.0839,72.8291 C95.7119,70.7951 94.2289,67.5571 94.5379,63.3181 C94.5839,62.6871 95.0489,62.1661 95.6699,62.0461 C96.3019,61.9251 96.9159,62.2401 97.1929,62.8071 C97.2429,62.9091 102.1799,72.8381 109.7419,72.8381 C109.8689,72.8381 109.9949,72.8351 110.1229,72.8291 C114.0949,72.6481 117.0069,73.4231 118.7739,75.1131 C119.2699,75.5881 119.6139,76.0801 119.8539,76.5361 L121.3209,74.4191 C121.5399,74.1031 121.8809,73.8901 122.2609,73.8321 C122.6409,73.7771 123.0289,73.8761 123.3329,74.1131 L126.5859,76.6531 C127.4989,71.8971 128.2949,66.7501 128.1559,64.6011 C127.9539,61.4601 127.3009,58.4861 126.2159,55.7611 C114.4229,26.1211 83.2979,33.6781 82.9839,33.7571 C82.9389,33.7691 82.8909,33.7781 82.8439,33.7851 C58.8939,37.3301 57.0589,66.8341 57.0249,75.2051 L62.6489,72.2721 C62.8509,72.1661 63.0719,72.1131 63.2959,72.1131 M66.7879,82.6301 C66.2399,82.6301 65.7399,82.3101 65.5129,81.8071 L62.6309,75.4391 L56.3149,78.7341 C55.8929,78.9531 55.3899,78.9441 54.9779,78.7111 C54.5649,78.4771 54.2979,78.0501 54.2699,77.5771 C54.2439,77.1571 52.0889,35.5631 82.3729,31.0241 C84.2149,30.5921 116.4279,23.5861 128.8169,54.7251 C130.0109,57.7231 130.7289,60.9861 130.9509,64.4211 C131.1689,67.8071 129.5809,76.0501 128.8889,79.4361 C128.7909,79.9111 128.4549,80.3011 128.0009,80.4691 C127.5469,80.6371 127.0379,80.5581 126.6549,80.2591 L122.7779,77.2321 L120.1479,81.0281 C119.7969,81.5311 119.1589,81.7471 118.5789,81.5671 C117.9949,81.3841 117.5969,80.8421 117.5969,80.2301 L117.5969,78.4901 C117.5899,78.3961 117.3339,75.3181 110.2459,75.6261 C105.1889,75.8661 101.1649,72.7331 98.4939,69.6731 C99.5679,71.9091 100.9789,73.1441 101.0029,73.1651 C101.4479,73.5461 101.6089,74.1641 101.4049,74.7141 C101.2009,75.2631 100.6779,75.6281 100.0919,75.6281 L93.1079,75.6281 C84.3459,75.0171 81.5419,65.1881 80.6489,58.5601 C78.1219,64.2171 73.9019,72.6671 69.9839,75.8961 L68.1199,81.6601 C67.9419,82.2111 67.4439,82.5951 66.8659,82.6281 C66.8399,82.6291 66.8139,82.6301 66.7879,82.6301" id="Fill-12" fill="#000000" mask="url(#mask-8)"></path>
                    </g>
                    <g id="Group-17">
                        <mask id="mask-10" fill="white">
                            <use xlink:href="#path-9"></use>
                        </mask>
                        <g id="Clip-16"></g>
                        <path d="M118.9971,73.8396 C131.3011,71.7676 129.8541,80.2306 129.8541,80.2306 C127.8301,93.3816 118.8801,93.3486 118.8801,93.3486 C110.2661,123.4566 90.8631,120.4506 90.8631,120.4506 C70.1621,117.6246 65.1091,92.8496 65.1091,92.8496 C58.3931,92.0186 55.0601,85.5806 55.0320419,78.8856 C55.0041,72.1896 65.1091,74.2276 65.1091,74.2276 L73.2161,55.0956 L79.0721,48.4506 L103.4591,52.6126 L118.9971,73.8396 Z" id="Fill-15" fill="#FFFFFF" mask="url(#mask-10)"></path>
                    </g>
                    <g id="Group-20">
                        <mask id="mask-12" fill="white">
                            <use xlink:href="#path-11"></use>
                        </mask>
                        <g id="Clip-19"></g>
                        <path d="M92.3418,121.9348 C91.3308,121.9348 90.7208,121.8458 90.6498,121.8338 C81.7698,120.6228 74.2798,115.2488 69.0168,106.2998 C65.9408,101.0698 64.4758,96.1068 63.9608,94.0808 C56.8738,92.6408 53.6598,85.5398 53.631732,78.8918 C53.6238,76.9768 54.3218,75.3878 55.6518,74.2958 C58.8818,71.6398 64.7298,72.7238 65.3858,72.8548 C66.1438,73.0078 66.6328,73.7458 66.4818,74.5028 C66.3288,75.2598 65.5998,75.7518 64.8338,75.6008 C63.4088,75.3168 59.2998,74.9168 57.4268,76.4608 C56.7428,77.0238 56.4278,77.7918 56.4328,78.8798 C56.4558,84.5998 59.2018,90.7078 65.2808,91.4598 C65.8768,91.5348 66.3608,91.9808 66.4808,92.5688 C66.5298,92.8078 71.5968,116.4068 91.0528,119.0638 C91.8158,119.1748 109.3908,121.4208 117.5338,92.9638 C117.7058,92.3628 118.2548,91.9488 118.8798,91.9488 L118.8848,91.9488 C119.1928,91.9448 126.6698,91.7258 128.4708,80.0178 C128.4768,79.9818 128.7968,77.8078 127.3488,76.3748 C125.9208,74.9648 123.1128,74.5658 119.2298,75.2198 C118.4718,75.3528 117.7438,74.8338 117.6158,74.0718 C117.4878,73.3098 118.0018,72.5878 118.7648,72.4588 C123.6638,71.6328 127.2298,72.2908 129.3488,74.4158 C131.8138,76.8868 131.2588,80.3208 131.2348,80.4658 C130.1138,87.7458 126.8868,91.2438 124.3768,92.8918 C122.6418,94.0318 120.9928,94.4718 119.9598,94.6418 C115.3438,110.0288 107.8228,116.6198 102.2758,119.4378 C98.0848,121.5678 94.3908,121.9348 92.3418,121.9348" id="Fill-18" fill="#000000" mask="url(#mask-12)"></path>
                    </g>
                    <g id="Group-23">
                        <mask id="mask-14" fill="white">
                            <use xlink:href="#path-13"></use>
                        </mask>
                        <g id="Clip-22"></g>
                        <path d="M125.292,72.1721 C124.04,78.9891 118.997,82.3151 118.997,82.3151 L118.997,78.4901 C118.997,78.4901 118.997,73.8391 110.185,74.2281 C101.372,74.6161 95.935,63.4201 95.935,63.4201 C95.436,70.2371 100.092,74.2281 100.092,74.2281 L93.108,74.2281 C81.367,73.4061 81.636,52.6121 81.636,52.6121 C81.636,52.6121 74.603,70.7361 68.783,75.0591 L66.788,81.2301 C66.788,81.2301 61.589,77.2821 61.589,69.7391" id="Fill-21" fill="#FFFFFF" mask="url(#mask-14)"></path>
                    </g>
                    <g id="Group-26">
                        <mask id="mask-16" fill="white">
                            <use xlink:href="#path-15"></use>
                        </mask>
                        <g id="Clip-25"></g>
                        <path d="M118.9971,83.7146 C118.7691,83.7146 118.5411,83.6596 118.3331,83.5476 C117.8801,83.3036 117.5971,82.8296 117.5971,82.3146 L117.5971,78.4906 C117.5901,78.3966 117.3341,75.3186 110.2461,75.6266 C105.1881,75.8656 101.1651,72.7336 98.4941,69.6726 C99.5681,71.9096 100.9781,73.1446 101.0031,73.1646 C101.4471,73.5466 101.6081,74.1646 101.4051,74.7136 C101.2011,75.2626 100.6781,75.6276 100.0921,75.6276 L93.1081,75.6276 C84.3461,75.0166 81.5421,65.1876 80.6481,58.5606 C78.1221,64.2166 73.9021,72.6666 69.9841,75.8966 L68.1201,81.6606 C67.9801,82.0916 67.6411,82.4296 67.2081,82.5656 C66.7751,82.7026 66.3041,82.6196 65.9411,82.3446 C65.7071,82.1666 60.1881,77.8836 60.1881,69.7386 C60.1881,68.9656 60.8151,68.3396 61.5891,68.3396 C62.3621,68.3396 62.9891,68.9656 62.9891,69.7386 C62.9891,74.0106 64.7951,76.9896 66.1571,78.6286 L67.4511,74.6286 C67.5411,74.3516 67.7151,74.1096 67.9481,73.9356 C72.4561,70.5866 78.4151,57.0426 80.3311,52.1066 C80.5751,51.4756 81.2381,51.1096 81.9011,51.2386 C82.5661,51.3666 83.0441,51.9526 83.0351,52.6306 C83.0331,52.8246 82.9211,72.1106 93.2061,72.8316 L97.0841,72.8296 C95.7121,70.7956 94.2281,67.5576 94.5381,63.3186 C94.5841,62.6876 95.0491,62.1666 95.6701,62.0466 C96.3021,61.9246 96.9161,62.2396 97.1931,62.8076 C97.2431,62.9096 102.1801,72.8376 109.7421,72.8376 C109.8691,72.8376 109.9951,72.8346 110.1231,72.8296 C114.0841,72.6486 117.0071,73.4226 118.7731,75.1136 C120.3511,76.6236 120.3971,78.3036 120.3971,78.4906 L120.3971,79.1276 C121.7381,77.5946 123.3141,75.1886 123.9151,71.9196 C124.0551,71.1586 124.7811,70.6566 125.5451,70.7956 C126.3061,70.9346 126.8091,71.6646 126.6691,72.4246 C125.3241,79.7446 119.9941,83.3346 119.7681,83.4836 C119.5351,83.6366 119.2671,83.7146 118.9971,83.7146" id="Fill-24" fill="#000000" mask="url(#mask-16)"></path>
                    </g>
                    <g id="Group-29">
                        <mask id="mask-18" fill="white">
                            <use xlink:href="#path-17"></use>
                        </mask>
                        <g id="Clip-28"></g>
                        <path d="M82.6387,32.4002 C82.6387,32.4002 115.1327,24.1172 127.5167,55.2432" id="Fill-27" fill="#FFFFFF" mask="url(#mask-18)"></path>
                    </g>
                    <g id="Group-32">
                        <mask id="mask-20" fill="white">
                            <use xlink:href="#path-19"></use>
                        </mask>
                        <g id="Clip-31"></g>
                        <path d="M127.5166,56.6434 C126.9596,56.6434 126.4336,56.3094 126.2156,55.7604 C114.4226,26.1224 83.2976,33.6784 82.9846,33.7564 C82.2346,33.9504 81.4736,33.4954 81.2826,32.7464 C81.0906,31.9974 81.5436,31.2344 82.2926,31.0434 C82.6286,30.9574 116.1246,22.8244 128.8176,54.7254 C129.1036,55.4434 128.7526,56.2584 128.0346,56.5434 C127.8646,56.6114 127.6896,56.6434 127.5166,56.6434" id="Fill-30" fill="#000000" mask="url(#mask-20)"></path>
                    </g>
                    <g id="Group-35">
                        <mask id="mask-22" fill="white">
                            <use xlink:href="#path-21"></use>
                        </mask>
                        <g id="Clip-34"></g>
                        <polyline id="Fill-33" fill="#FFFFFF" mask="url(#mask-22)" points="76.0166 113.0911 76.0166 128.2051 92.5936 142.0061 84.3056 154.3101 63.1856 134.6901 72.6626 125.8771 74.9906 126.0441"></polyline>
                    </g>
                    <g id="Group-38">
                        <mask id="mask-24" fill="white">
                            <use xlink:href="#path-23"></use>
                        </mask>
                        <g id="Clip-37"></g>
                        <path d="M65.2422,134.6893 L84.0592,152.1703 L90.7262,142.2723 L75.1212,129.2813 C74.8022,129.0153 74.6162,128.6213 74.6162,128.2053 L74.6162,127.4203 L73.1712,127.3173 L65.2422,134.6893 Z M84.3052,155.7103 C83.9542,155.7103 83.6132,155.5773 83.3522,155.3353 L62.2322,135.7153 C61.9472,135.4503 61.7852,135.0793 61.7852,134.6903 C61.7852,134.3013 61.9472,133.9293 62.2322,133.6643 L71.7102,124.8523 C71.9952,124.5873 72.3742,124.4543 72.7632,124.4803 L74.6162,124.6133 L74.6162,113.0913 C74.6162,112.3173 75.2432,111.6913 76.0162,111.6913 C76.7902,111.6913 77.4172,112.3173 77.4172,113.0913 L77.4172,127.5493 L93.4902,140.9293 C94.0432,141.3893 94.1572,142.1923 93.7562,142.7883 L85.4672,155.0923 C85.2382,155.4313 84.8722,155.6533 84.4662,155.7003 C84.4122,155.7073 84.3582,155.7103 84.3052,155.7103 L84.3052,155.7103 Z" id="Fill-36" fill="#000000" mask="url(#mask-24)"></path>
                    </g>
                    <g id="Group-41">
                        <mask id="mask-26" fill="white">
                            <use xlink:href="#path-25"></use>
                        </mask>
                        <g id="Clip-40"></g>
                        <polyline id="Fill-39" fill="#FFFFFF" mask="url(#mask-26)" points="108.9092 113.0911 108.9092 128.2051 92.5942 142.0061 100.5882 156.0491 122.6122 134.2821 111.9022 124.3811 109.9072 124.5471"></polyline>
                    </g>
                    <g id="Group-44">
                        <mask id="mask-28" fill="white">
                            <use xlink:href="#path-27"></use>
                        </mask>
                        <g id="Clip-43"></g>
                        <path d="M94.3867,142.3235 L100.9017,153.7695 L120.5867,134.3165 L111.4047,125.8275 L110.3097,125.9185 L110.3097,128.2055 C110.3097,128.6175 110.1277,129.0085 109.8137,129.2745 L94.3867,142.3235 Z M100.5877,157.4485 C100.5247,157.4485 100.4607,157.4445 100.3967,157.4355 C99.9657,157.3765 99.5867,157.1195 99.3707,156.7405 L91.3777,142.6985 C91.0447,142.1125 91.1757,141.3715 91.6907,140.9365 L107.5087,127.5555 L107.5087,113.0915 C107.5087,112.3175 108.1357,111.6915 108.9087,111.6915 C109.6827,111.6915 110.3097,112.3175 110.3097,113.0915 L110.3097,123.1085 L111.7857,122.9865 C112.1917,122.9515 112.5657,123.0875 112.8527,123.3535 L123.5627,133.2545 C123.8437,133.5135 124.0057,133.8765 124.011933,134.2595 C124.0187,134.6415 123.8677,135.0095 123.5967,135.2785 L101.5727,157.0445 C101.3087,157.3045 100.9537,157.4485 100.5877,157.4485 L100.5877,157.4485 Z" id="Fill-42" fill="#000000" mask="url(#mask-28)"></path>
                    </g>
                    <g id="Group-47">
                        <mask id="mask-30" fill="white">
                            <use xlink:href="#path-29"></use>
                        </mask>
                        <g id="Clip-46"></g>
                        <path d="M14.0791,152.9383 C13.7801,152.9383 13.4791,152.8433 13.2251,152.6463 C12.6121,152.1743 12.4991,151.2953 12.9721,150.6833 L17.0211,145.4353 C19.7031,141.9603 23.5661,139.6623 27.9001,138.9623 L62.9631,133.3073 C63.7251,133.1843 64.4441,133.7033 64.5671,134.4663 C64.6901,135.2303 64.1721,135.9483 63.4081,136.0723 L28.3461,141.7273 C24.7181,142.3123 21.4831,144.2363 19.2381,147.1463 L15.1881,152.3943 C14.9121,152.7513 14.4981,152.9383 14.0791,152.9383" id="Fill-45" fill="#000000" mask="url(#mask-30)"></path>
                    </g>
                </g>
                <path d="M91.5,3.0004 C42.701,3.0004 3,42.7014 3,91.5004 C3,140.2994 42.701,180.0004 91.5,180.0004 C140.299,180.0004 180,140.2994 180,91.5004 C180,42.7014 140.299,3.0004 91.5,3.0004 M91.5,183.0004 C41.047,183.0004 0,141.9534 0,91.5004 C0,41.0474 41.047,0.0004 91.5,0.0004 C141.953,0.0004 183,41.0474 183,91.5004 C183,141.9534 141.953,183.0004 91.5,183.0004" id="Fill-49" fill="#000000"></path>
            </g>
        </g>
    </g>
</svg>